\relax 
\@writefile{toc}{\contentsline {chapter}{\numberline {1}Positron Emission Tomography (PET) system }{2}}
\@writefile{lof}{\addvspace {10\p@ }}
\@writefile{lot}{\addvspace {10\p@ }}
\@writefile{toc}{\contentsline {section}{\numberline {1.1}Introduction}{2}}
\@writefile{toc}{\contentsline {section}{\numberline {1.2}The Positron Emission Tomography (PET) system physics }{2}}
\@writefile{toc}{\contentsline {section}{\numberline {1.3}Photon Detectors for Positron Emission Tomography(PET) system}{2}}
\@writefile{toc}{\contentsline {subsection}{\numberline {1.3.1}Introduction}{2}}
\@writefile{toc}{\contentsline {subsection}{\numberline {1.3.2}Interactions of Photons with Matter}{3}}
\@writefile{toc}{\contentsline {subsubsection}{Photoelectric effect:}{3}}
\@writefile{toc}{\contentsline {subsubsection}{Compton scattering(non-coherent):}{3}}
\@writefile{toc}{\contentsline {subsubsection}{Pair production:}{3}}
\@writefile{toc}{\contentsline {subsubsection}{Rayleigh scattering(coherent):}{3}}
\@writefile{toc}{\contentsline {subsection}{\numberline {1.3.3}Radioactive Decay}{3}}
\@writefile{toc}{\contentsline {section}{\numberline {1.4}The PET Scintillation Detector}{3}}
\@writefile{toc}{\contentsline {chapter}{\numberline {2}The Scintillation material }{4}}
\@writefile{lof}{\addvspace {10\p@ }}
\@writefile{lot}{\addvspace {10\p@ }}
\@writefile{toc}{\contentsline {section}{\numberline {2.1}scintillation material types}{4}}
\@writefile{toc}{\contentsline {subsection}{\numberline {2.1.1} Physical characteristic of the inorganic scintillator:}{4}}
\@writefile{toc}{\contentsline {paragraph}{ Pure inorganic scintillator crystal}{5}}
\@writefile{toc}{\contentsline {paragraph}{ Doped inorganic scintillator crystal }{5}}
\@writefile{toc}{\contentsline {paragraph}{ Examples of the inorganic scintillation materials:}{5}}
\@writefile{toc}{\contentsline {paragraph}{ NaI(Tl)}{5}}
\@writefile{toc}{\contentsline {paragraph}{$LaBr_3\ (Ce)$}{5}}
\@writefile{toc}{\contentsline {paragraph}{$ Lu_2SiO_5$(LSO)}{5}}
\@writefile{toc}{\contentsline {paragraph}{$ PbWO_4 $(PWO) }{5}}
\@writefile{toc}{\contentsline {paragraph}{ YAP:Ce}{5}}
\@writefile{toc}{\contentsline {paragraph}{YAG:Ce}{5}}
\@writefile{toc}{\contentsline {paragraph}{BGO}{5}}
\@writefile{toc}{\contentsline {paragraph}{CaF:Eu}{6}}
\@writefile{toc}{\contentsline {paragraph}{CsI:Tl}{6}}
\@writefile{toc}{\contentsline {paragraph}{LuAG:Ce}{6}}
\@writefile{toc}{\contentsline {paragraph}{GSO}{6}}
\@writefile{toc}{\contentsline {paragraph}{CWO}{6}}
\@writefile{toc}{\contentsline {paragraph}{ MLS}{6}}
\@writefile{toc}{\contentsline {paragraph}{$ Lu_{0.4}Gd_{1.6}SiO_5$(LGSO)}{6}}
\@writefile{toc}{\contentsline {section}{\numberline {2.2}Monolithic scintillator}{6}}
\@writefile{toc}{\contentsline {subsection}{\numberline {2.2.1}The drawbacks of the monolithic scintillator are:}{7}}
\@writefile{toc}{\contentsline {section}{\numberline {2.3}conclusion}{7}}
\@writefile{toc}{\contentsline {chapter}{\numberline {3}Positron Emission Tomography (PET) Photodetectors}{8}}
\@writefile{lof}{\addvspace {10\p@ }}
\@writefile{lot}{\addvspace {10\p@ }}
\@writefile{toc}{\contentsline {section}{\numberline {3.1}Introduction}{8}}
\@writefile{toc}{\contentsline {section}{\numberline {3.2} Photomultiplier Tube (PMT)}{8}}
\@writefile{toc}{\contentsline {subsection}{\numberline {3.2.1}Photomultiplier Tube (PMT) operation}{8}}
\@writefile{lof}{\contentsline {figure}{\numberline {3.1}{\ignorespaces  Basic structure of a Photomultiplier Tube (PMT)[2]}}{9}}
\@writefile{toc}{\contentsline {section}{\numberline {3.3} Solid state Semiconductor Photodiode}{9}}
\@writefile{toc}{\contentsline {subsection}{\numberline {3.3.1}Introduction }{9}}
\@writefile{toc}{\contentsline {subsection}{\numberline {3.3.2}Avalanche Photodiodes}{9}}
\@writefile{toc}{\contentsline {paragraph}{ The avalanche photodiode (APD) operation:}{10}}
\@writefile{toc}{\contentsline {subsection}{\numberline {3.3.3} Geiger-mode Avalanche Photodiodes (G-APD)}{10}}
\@writefile{toc}{\contentsline {subsection}{\numberline {3.3.4}Silicon Drift Detectors (SDDs) }{10}}
\@writefile{lof}{\contentsline {figure}{\numberline {3.2}{\ignorespaces  Basic structure of a Silicon drift detectors (SDDs)}}{10}}
\@writefile{toc}{\contentsline {subsection}{\numberline {3.3.5} Silicon photomultipliers (SiPMs)}{11}}
\@writefile{toc}{\contentsline {subsubsection}{Introduction to Silicon photomultipliers (SiPMs) }{11}}
\@writefile{toc}{\contentsline {subsubsection}{ Silicon Photomultipliers operation}{11}}
\@writefile{lof}{\contentsline {figure}{\numberline {3.3}{\ignorespaces  Basic structure of a Silicon photomultipliers detectors (SiPMs)}}{11}}
\@writefile{lof}{\contentsline {figure}{\numberline {3.4}{\ignorespaces  Single (G-APD) is a p-n junction with a very thin depletion layer between p+ and n+ layers.}}{12}}
\@writefile{toc}{\contentsline {subparagraph}{ The disadvantages of the Silicon photomultipliers (SiPMs) as compared to photo multiplier tube (PMT) are:}{12}}
\@writefile{toc}{\contentsline {subsection}{\numberline {3.3.6}The Digital Silicon Photomultipliers (dSiPMs)}{12}}
\@writefile{toc}{\contentsline {section}{\numberline {3.4}Conclusion}{13}}
\@writefile{lof}{\contentsline {figure}{\numberline {3.5}{\ignorespaces  Summarization of the physical characteristics for some scintillator materials using PMT and APD relative to NaI(TI) [8] .}}{13}}
\@writefile{toc}{\contentsline {chapter}{\numberline {4} Bibliography}{14}}
\@writefile{lof}{\addvspace {10\p@ }}
\@writefile{lot}{\addvspace {10\p@ }}
\@writefile{toc}{\contentsline {chapter}{\numberline {5}Glossary}{16}}
\@writefile{lof}{\addvspace {10\p@ }}
\@writefile{lot}{\addvspace {10\p@ }}
